
#War with monstrous nation
estate_adventurers_war_monstrous = {
	can_select = {
		is_free_or_tributary_trigger = yes
		is_at_war = no
		any_neighbor_country = {
			has_country_modifier = monstrous_nation
			is_free_or_tributary_trigger = yes
			NOT = { is_subject_of = root }
			NOT = { overlord_of = root }
			NOT = { alliance_with = root }
			NOT = { ROOT = { truce_with = prev } }
			NOT = { 
				has_opinion = {
					who = root
					value = 25
				}
			}
			ROOT = {
				knows_country = prev
			}
			OR = {
				is_part_of_hre = no
				NOT = { hre_reform_passed = landfriede }
				ROOT = { is_part_of_hre = no }
			}
		}
	}
	selection_weight = {
		factor = 1
		modifier = {
			factor = 0.5
			has_non_generic_missions = yes
		}
		modifier = {
			factor = 1.5
			num_of_cities = 20
		}
		modifier = {
			factor = 1.5
			num_of_cities = 25
		}
		modifier = {
			factor = 1.5
			num_of_cities = 30
		}
		modifier = {
			factor = 1.5
			num_of_cities = 40
		}
		modifier = {
			factor = 1.5
			num_of_cities = 50
		}
		modifier = {
			factor = 0.25
			any_country = {
				coalition_target = root
			}
		}
	}
	pre_effect = {
		random_neighbor_country = {
			limit = {
				has_country_modifier = monstrous_nation
				is_free_or_tributary_trigger = yes
				NOT = { is_subject_of = root }
				NOT = { overlord_of = root }
				NOT = { alliance_with = root }
				NOT = { ROOT = { truce_with = prev } }
				NOT = { 
					has_opinion = {
						who = root
						value = 25
					}
				}
				ROOT = {
					knows_country = prev
				}
				OR = {
					is_part_of_hre = no
					NOT = { hre_reform_passed = landfriede }
					ROOT = { is_part_of_hre = no }
				}
			}
			save_event_target_as = agenda_country
		}
	}
	provinces_to_highlight = {
		is_capital_of = event_target:agenda_country
	}
	task_requirements = {
		event_target:agenda_country = {
			war_with = ROOT
		}
	}
	fail_if = {
		event_target:agenda_country = {
			NOT = { num_of_cities = 1 }
		}
	}
	task_completed_effect = {
		add_estate_loyalty = {
			estate = estate_adventurers
			loyalty = 10
		}
	}
    failing_effect = {
        add_estate_loyalty_modifier = {
            estate = estate_adventurers
			desc = EST_VAL_AGENDA_DENIED
			loyalty = -5
			duration = 7300
		}
    }
}

#Conquer X province from monstrous nation
estate_adventurers_conquer_monstrous_province_x = {
	can_select = {
		is_free_or_tributary_trigger = yes
		is_at_war = no
		any_neighbor_country = {
			has_country_modifier = monstrous_nation
			num_of_cities = 6
			is_free_or_tributary_trigger = yes
			NOT = { is_subject_of = root }
			NOT = { overlord_of = root }
			NOT = { alliance_with = root }
			NOT = { ROOT = { truce_with = prev } }
			NOT = { 
				has_opinion = {
					who = root
					value = 25
				}
			}
			NOT = {
				any_owned_province = { #No need for this agenda if covered by a mission
					OR = {
						is_permanent_claim = root
						is_core = root
					}
				}
			}
			ROOT = {
				knows_country = prev
			}
			OR = {
				is_part_of_hre = no
				NOT = { hre_reform_passed = landfriede }
				ROOT = { is_part_of_hre = no }
			}
		}
	}
	selection_weight = {
		factor = 2
		modifier = {
			factor = 0.5
			has_non_generic_missions = yes
		}
		modifier = {
			factor = 1.5
			num_of_cities = 20
		}
		modifier = {
			factor = 1.5
			num_of_cities = 25
		}
		modifier = {
			factor = 1.5
			num_of_cities = 30
		}
		modifier = {
			factor = 1.5
			num_of_cities = 40
		}
		modifier = {
			factor = 1.5
			num_of_cities = 50
		}
		modifier = {
			factor = 0.25
			any_country = {
				coalition_target = root
			}
		}
	}
	pre_effect = {
		random_neighbor_country = {
			limit = {
				has_country_modifier = monstrous_nation
				num_of_cities = 6
				is_free_or_tributary_trigger = yes
				NOT = { is_subject_of = root }
				NOT = { overlord_of = root }
				NOT = { alliance_with = root }
				NOT = { ROOT = { truce_with = prev } }
				NOT = { 
					has_opinion = {
						who = root
						value = 25
					}
				}
				NOT = {
					any_owned_province = { #No need for this agenda if covered by a mission
						OR = {
							is_permanent_claim = root
							is_core = root
						}
					}
				}
				ROOT = {
					knows_country = prev
				}
				OR = {
					is_part_of_hre = no
					NOT = { hre_reform_passed = landfriede }
					ROOT = { is_part_of_hre = no }
				}
			}
			random_owned_province = {
				limit = {
					any_neighbor_province = {
						owned_by = root
					}
				}
				save_event_target_as = agenda_province
			}
		}
	}
	immediate_effect = {
		if = {
			limit = {
				event_target:agenda_province = {
					NOT = { is_claim = root }
					NOT = { is_core = root }
				}
			}
			event_target:agenda_province = {
				add_claim = root
			}
		}
	}
	on_invalid = {
		if = {
			limit = {
				event_target:agenda_province = {
					is_claim = root
					NOT = { is_permanent_claim = root }
				}
			}
			event_target:agenda_province = {
				remove_claim = root
			}
		}
	}
	provinces_to_highlight = {
		province_id = event_target:agenda_province
	}
	task_requirements = {
		event_target:agenda_province = {
			owned_by = root
		}
	}
	fail_if = {
		event_target:agenda_province = {
			NOT = { is_claim = root }
			NOT = { is_core = root }
			NOT = { owned_by = root }
		}
	}
	task_completed_effect = {
		add_estate_loyalty = {
			estate = estate_adventurers
			loyalty = 5
		}
		add_adm_power = 50
	}
    failing_effect = {
        add_estate_loyalty_modifier = {
            estate = estate_adventurers
			desc = EST_VAL_AGENDA_DENIED
			loyalty = -5
			duration = 7300
        }
		if = {
			limit = {
				event_target:agenda_province = {
					is_claim = root
					NOT = { is_permanent_claim = root }
				}
			}
			event_target:agenda_province = {
				remove_claim = root
			}
		}
    }
}

#Support independence of X (subject of monstrous nation)
estate_adventurers_support_independence_monstrous = {
	can_select = {
		OR = {
			has_dlc = "Conquest of Paradise"
			has_dlc = "El Dorado"
		}
		is_at_war = no
		is_subject = no
		any_neighbor_country = {
			has_country_modifier = monstrous_nation
			NOT = { is_subject_of = root }
			NOT = { overlord_of = root }
			NOT = { alliance_with = root }
			NOT = { ROOT = { truce_with = prev } }
			NOT = { 
				has_opinion = {
					who = root
					value = 25
				}
			}
			any_subject_country = {
				NOT = { has_reform = prabhi_reform }
				NOT = { has_reform = senapti_reform }
				NOT = { has_reform = xiaken }
				is_subject_other_than_tributary_trigger = yes
				liberty_desire = 50
				has_opinion = {
					who = root
					value = -100
				}
				ROOT = {
					NOT = { is_supporting_independence_of = prev }
				}
			}
		}
	}
	selection_weight = {
		factor = 2
	}
	pre_effect = {
		random_neighbor_country = {
			limit = {
				has_country_modifier = monstrous_nation
				NOT = { is_subject_of = root }
				NOT = { overlord_of = root }
				NOT = { alliance_with = root }
				NOT = { ROOT = { truce_with = prev } }
				NOT = { 
					has_opinion = {
						who = root
						value = 25
					}
				}
				any_subject_country = {
					NOT = { has_reform = prabhi_reform }
					NOT = { has_reform = senapti_reform }
					NOT = { has_reform = xiaken }
					is_subject_other_than_tributary_trigger = yes
					liberty_desire = 50
					has_opinion = {
						who = root
						value = -100
					}
					ROOT = {
						NOT = { is_supporting_independence_of = prev }
					}
				}
			}
			save_event_target_as = agenda_rival_country
			random_subject_country = {
				limit = {
					NOT = { has_reform = prabhi_reform }
					NOT = { has_reform = senapti_reform }
					NOT = { has_reform = xiaken }
					is_subject_other_than_tributary_trigger = yes
					liberty_desire = 50
					has_opinion = {
						who = root
						value = -100
					}
					ROOT = {
						NOT = { is_supporting_independence_of = prev }
					}
				}
				save_event_target_as = agenda_country
			}
		}
	}
	fail_if = {
		OR = {
			is_subject = yes
			event_target:agenda_country = {
				OR = {
					NOT = { is_subject_of = event_target:agenda_rival_country }
					NOT = { num_of_cities = 1 }
					war_with = root
				}
			}
		}
	}
	provinces_to_highlight = {
		is_capital_of = event_target:agenda_country
	}
	task_requirements = {
		is_supporting_independence_of = event_target:agenda_country
	}
	task_completed_effect = {
		add_estate_loyalty = {
			estate = estate_adventurers
			loyalty = 10
		}
		add_dip_power = 50
	}
    failing_effect = {
        add_estate_loyalty_modifier = {
            estate = estate_adventurers
			desc = EST_VAL_AGENDA_DENIED
			loyalty = -5
			duration = 7300
        }
    }
}

#Support independence of X (subject of witch king)
estate_adventurers_support_independence_witch_king = {
	can_select = {
		OR = {
			has_dlc = "Conquest of Paradise"
			has_dlc = "El Dorado"
		}
		is_at_war = no
		is_subject = no
		any_neighbor_country = {
			has_country_modifier = witch_king_modifier
			NOT = { is_subject_of = root }
			NOT = { overlord_of = root }
			NOT = { alliance_with = root }
			NOT = { ROOT = { truce_with = prev } }
			NOT = { 
				has_opinion = {
					who = root
					value = 25
				}
			}
			any_subject_country = {
				NOT = { has_reform = prabhi_reform }
				NOT = { has_reform = senapti_reform }
				NOT = { has_reform = xiaken }
				is_subject_other_than_tributary_trigger = yes
				liberty_desire = 50
				has_opinion = {
					who = root
					value = -100
				}
				ROOT = {
					NOT = { is_supporting_independence_of = prev }
				}
			}
		}
	}
	selection_weight = {
		factor = 2
	}
	pre_effect = {
		random_neighbor_country = {
			limit = {
				has_country_modifier = witch_king_modifier
				NOT = { is_subject_of = root }
				NOT = { overlord_of = root }
				NOT = { alliance_with = root }
				NOT = { ROOT = { truce_with = prev } }
				NOT = { 
					has_opinion = {
						who = root
						value = 25
					}
				}
				any_subject_country = {
					NOT = { has_reform = prabhi_reform }
					NOT = { has_reform = senapti_reform }
					NOT = { has_reform = xiaken }
					is_subject_other_than_tributary_trigger = yes
					liberty_desire = 50
					has_opinion = {
						who = root
						value = -100
					}
					ROOT = {
						NOT = { is_supporting_independence_of = prev }
					}
				}
			}
			save_event_target_as = agenda_rival_country
			random_subject_country = {
				limit = {
					NOT = { has_reform = prabhi_reform }
					NOT = { has_reform = senapti_reform }
					NOT = { has_reform = xiaken }
					is_subject_other_than_tributary_trigger = yes
					liberty_desire = 50
					has_opinion = {
						who = root
						value = -100
					}
					ROOT = {
						NOT = { is_supporting_independence_of = prev }
					}
				}
				save_event_target_as = agenda_country
			}
		}
		random_neighbor_country = {
			limit = {
				has_country_modifier = witch_king_modifier
				has_country_modifier = undead_military
				NOT = { is_subject_of = root }
				NOT = { overlord_of = root }
				NOT = { alliance_with = root }
				NOT = { ROOT = { truce_with = prev } }
				NOT = { 
					has_opinion = {
						who = root
						value = 25
					}
				}
				any_subject_country = {
					NOT = { has_reform = prabhi_reform }
					NOT = { has_reform = senapti_reform }
					NOT = { has_reform = xiaken }
					is_subject_other_than_tributary_trigger = yes
					liberty_desire = 50
					has_opinion = {
						who = root
						value = -100
					}
					ROOT = {
						NOT = { is_supporting_independence_of = prev }
					}
				}
			}
			save_event_target_as = agenda_rival_country
			random_subject_country = {
				limit = {
					NOT = { has_reform = prabhi_reform }
					NOT = { has_reform = senapti_reform }
					NOT = { has_reform = xiaken }
					is_subject_other_than_tributary_trigger = yes
					liberty_desire = 50
					has_opinion = {
						who = root
						value = -100
					}
					ROOT = {
						NOT = { is_supporting_independence_of = prev }
					}
				}
				save_event_target_as = agenda_country
			}
		}
		random_neighbor_country = {
			limit = {
				has_country_modifier = witch_king_modifier
				has_country_modifier = lich_ruler
				NOT = { is_subject_of = root }
				NOT = { overlord_of = root }
				NOT = { alliance_with = root }
				NOT = { ROOT = { truce_with = prev } }
				NOT = { 
					has_opinion = {
						who = root
						value = 25
					}
				}
				any_subject_country = {
					NOT = { has_reform = prabhi_reform }
					NOT = { has_reform = senapti_reform }
					NOT = { has_reform = xiaken }
					is_subject_other_than_tributary_trigger = yes
					liberty_desire = 50
					has_opinion = {
						who = root
						value = -100
					}
					ROOT = {
						NOT = { is_supporting_independence_of = prev }
					}
				}
			}
			save_event_target_as = agenda_rival_country
			random_subject_country = {
				limit = {
					NOT = { has_reform = prabhi_reform }
					NOT = { has_reform = senapti_reform }
					NOT = { has_reform = xiaken }
					is_subject_other_than_tributary_trigger = yes
					liberty_desire = 50
					has_opinion = {
						who = root
						value = -100
					}
					ROOT = {
						NOT = { is_supporting_independence_of = prev }
					}
				}
				save_event_target_as = agenda_country
			}
		}
	}
	fail_if = {
		OR = {
			is_subject = yes
			event_target:agenda_country = {
				OR = {
					NOT = { is_subject_of = event_target:agenda_rival_country }
					NOT = { num_of_cities = 1 }
					war_with = root
				}
			}
		}
	}
	provinces_to_highlight = {
		is_capital_of = event_target:agenda_country
	}
	task_requirements = {
		is_supporting_independence_of = event_target:agenda_country
	}
	task_completed_effect = {
		add_estate_loyalty = {
			estate = estate_adventurers
			loyalty = 10
		}
		add_dip_power = 50
	}
    failing_effect = {
        add_estate_loyalty_modifier = {
			
            estate = estate_adventurers
			desc = EST_VAL_AGENDA_DENIED
			loyalty = -5
			duration = 7300
        }
    }
}

#Hire mercenaries
estate_adventurers_hire_mercenaries = {
	can_select = {
		is_at_war = yes
		NOT = { num_of_mercenaries = 1 }
	}
	selection_weight = {
		factor = 2
		modifier = {
			factor = 1.5
			NOT = { war_score = 0 }
		}
	}
	fail_if = {
		is_at_war = no
		NOT = { num_of_mercenaries = 1 }
	}
	task_requirements = {
		num_of_mercenaries = 1
	}
	task_completed_effect = {
		add_estate_loyalty = {
			estate = estate_adventurers
			loyalty = 5
		}
		add_country_modifier = {
			name = adventurers_hired_mercs
			duration = 3650
		}
	}
    failing_effect = {
        add_estate_loyalty_modifier = {
            estate = estate_adventurers
			desc = EST_VAL_AGENDA_DENIED
			loyalty = -5
			duration = 7300
        }
    }
}

#Colonise something in X area
estate_adventurers_colonise_X = {
	can_select = {
		num_of_colonists = 1
		num_of_ports = 1
		any_province = {
			range = root
			is_city = no
			is_wasteland = no
			OR = {
				has_port = yes
				any_neighbor_province = {
					OR = {
						owned_by = root
						owner = {
							is_colonial_nation_of = root
						}
					}
				}
			}
			has_discovered = root
			area_for_scope_province = {
				type = all
				NOT = { owned_by = root }
				NOT = {
					owner = {
						is_colonial_nation_of = root
					}
				}
			}
			OR = {
				NOT = { colonial_claim_by_anyone_of_religion = root }
				is_religion_grant_colonial_claim = root
			}
			development = 3
		}
		NOT = { has_country_modifier = colonial_enthusiasm }
	}
	selection_weight = {
		factor = 2.5
		modifier = {
			factor = 2
			OR = {
				tag = A01 #Lorent
				tag = A02 #Deranne
				tag = A21 #Venail
				tag = A33 #Verne
				tag = A11 #Pearlsedge
				tag = A47 #Eborthil
				tag = A29 #Busilar
			}
		}
		modifier = {
			factor = 1.5
			OR = {
				tag = A05 #Reveria
				tag = F08 #Ekha
				tag = A79 #Gnomish Hierarchy
				tag = A09 #Sorncost
			}
		}
		modifier = {
			factor = 1.25
			OR = {
				tag = Z08 #Bjarnrik
				tag = A19 #Portnamm
				tag = A80 #Iochand
				tag = Z10 #Revrhavn
			}
		}
		modifier = {
			factor = 2
			num_of_colonists = 2
		}
		modifier = {
			factor = 1.5
			any_country = {
				is_colonial_nation_of = root
			}
		}
	}
	pre_effect = {
		random_province = {
			limit = {
				range = root
				is_city = no
				is_wasteland = no
				OR = {
					has_port = yes
					any_neighbor_province = {
						OR = {
							owned_by = root
							owner = {
								is_colonial_nation_of = root
							}
						}
					}
				}
				has_discovered = root
				area_for_scope_province = {
					type = all
					NOT = { owned_by = root }
					NOT = {
						owner = {
							is_colonial_nation_of = root
						}
					}
				}
				OR = {
					NOT = { colonial_claim_by_anyone_of_religion = root }
					is_religion_grant_colonial_claim = root
				}
				development = 3
			}
			save_event_target_as = agenda_province
		}
		random_province = {
			limit = {
				range = root
				is_city = no
				is_wasteland = no
				any_neighbor_province = {
					OR = {
						owned_by = root
						owner = {
							is_colonial_nation_of = root
						}
					}
				}
				has_discovered = root
				area_for_scope_province = {
					type = all
					NOT = { owned_by = root }
					NOT = {
						owner = {
							is_colonial_nation_of = root
						}
					}
				}
				OR = {
					continent = north_america
					continent = south_america
					continent = new_world
				}
				OR = {
					NOT = { colonial_claim_by_anyone_of_religion = root }
					is_religion_grant_colonial_claim = root
				}
			}
			save_event_target_as = agenda_province
		}
	}
	provinces_to_highlight = {
		area_for_scope_province = {
			province_id = event_target:agenda_province
		}
	}
	task_requirements = {
		custom_trigger_tooltip = {
			tooltip = estate_burghers_colonise_X_requirements
			event_target:agenda_province = {
				area_for_scope_province = {
					is_city = yes
					OR = {
						owned_by = root
						owner = {
							is_colonial_nation_of = root
						}
					}
				}
			}
		}
	}
	task_completed_effect = {
		add_estate_loyalty = {
			estate = estate_adventurers
			loyalty = 10
		}
		add_country_modifier = {
			name = colonial_enthusiasm
			duration = 3650
		}
	}
	fail_if = {
		OR = {
			AND = {
				NOT = { num_of_colonists = 1 }
				event_target:agenda_province = {
					NOT = { owned_by = root }
				}
			}
			event_target:agenda_province = {
				NOT = { range = root }
			}
			event_target:agenda_province = {
				area_for_scope_province = {
					type = all
					is_city = yes
					NOT = { owned_by = root }
					NOT = {
						owner = {
							is_colonial_nation_of = root
						}
					}
				}
			}
		}
	}
    failing_effect = {
        add_estate_loyalty_modifier = {
            estate = estate_adventurers
			desc = EST_VAL_AGENDA_DENIED
			loyalty = -5
			duration = 7300
        }
    }
}

#Increase autonomy
estate_adventurers_increase_autonomy = {
	can_select = {
		is_at_war = no
		any_owned_province = {
			is_state_core = root
			NOT = { local_autonomy_above_min = 25 }
			NOT = { has_province_modifier = autonomy_increased }
			NOT = { has_province_modifier = autonomy_decreased }
			is_capital = no
		}
	}
	selection_weight = {
		factor = 1
	}
	pre_effect = {
		random_owned_province = {
			limit = {
				is_state_core = root
				NOT = { local_autonomy_above_min = 25 }
				NOT = { has_province_modifier = autonomy_increased }
				NOT = { has_province_modifier = autonomy_decreased }
				is_capital = no
			}
			save_event_target_as = agenda_province
		}
	}
	provinces_to_highlight = {
		province_id = event_target:agenda_province
	}
	task_requirements = {
		event_target:agenda_province = {
			local_autonomy_above_min = 25
		}
	}
	fail_if = {
		event_target:agenda_province = {
			NOT = { owned_by = root }
		}
	}
	task_completed_effect = {
		add_estate_loyalty = {
			estate = estate_adventurers
			loyalty = 10
		}
		event_target:agenda_province = {
			add_province_modifier = {
				name = adventurers_city_development
				duration = 3650
			}
		}
	}
    failing_effect = {
        add_estate_loyalty_modifier = {
            estate = estate_adventurers
			desc = EST_VAL_AGENDA_DENIED
			loyalty = -5
			duration = 7300
        }
    }
}

#Join a coalition
estate_adventurers_join_coalition = {
	can_select = {
		is_free_or_tributary_trigger = yes
		is_at_war = no
		any_known_country = {
			is_free_or_tributary_trigger = yes
			NOT = { is_subject_of = root }
			NOT = { overlord_of = root }
			NOT = { alliance_with = root }
			NOT = { ROOT = { truce_with = prev } }
			ROOT = { NOT = { coalition_target = PREV } }
			ROOT = {
				has_opinion_modifier = {
					who = PREV
					modifier = aggressive_expansion
				}
			}
			ROOT = {
				NOT = {
					has_opinion_modifier = {
						who = PREV
						modifier = aggressive_expansion
						value = -50
					}
				}
			}
			ROOT = {
				knows_country = prev
			}
			OR = {
				is_part_of_hre = no
				NOT = { hre_reform_passed = landfriede }
				ROOT = { is_part_of_hre = no }
			}
		}
	}
	selection_weight = {
		factor = 1
		modifier = {
			factor = 0.5
			has_non_generic_missions = yes
		}
		modifier = {
			factor = 1.5
			num_of_cities = 20
		}
		modifier = {
			factor = 1.5
			num_of_cities = 25
		}
		modifier = {
			factor = 1.5
			num_of_cities = 30
		}
		modifier = {
			factor = 1.5
			num_of_cities = 40
		}
		modifier = {
			factor = 1.5
			num_of_cities = 50
		}
		modifier = {
			factor = 0.25
			any_country = {
				coalition_target = root
			}
		}
	}
	pre_effect = {
		random_known_country = {
			limit = {
				is_free_or_tributary_trigger = yes
				NOT = { is_subject_of = root }
				NOT = { overlord_of = root }
				NOT = { alliance_with = root }
				NOT = { ROOT = { truce_with = prev } }
				ROOT = { NOT = { coalition_target = PREV } }
				ROOT = {
					has_opinion_modifier = {
						who = PREV
						modifier = aggressive_expansion
					}
				}
				ROOT = {
					NOT = {
						has_opinion_modifier = {
							who = PREV
							modifier = aggressive_expansion
							value = -50
						}
					}
				}
				ROOT = {
					knows_country = prev
				}
				OR = {
					is_part_of_hre = no
					NOT = { hre_reform_passed = landfriede }
					ROOT = { is_part_of_hre = no }
				}
			}
			save_event_target_as = agenda_country
		}
		random_known_country = {
			limit = {
				is_free_or_tributary_trigger = yes
				NOT = { is_subject_of = root }
				NOT = { overlord_of = root }
				NOT = { alliance_with = root }
				NOT = { ROOT = { truce_with = prev } }
				ROOT = { NOT = { coalition_target = PREV } }
				ROOT = {
					has_opinion_modifier = {
						who = PREV
						modifier = aggressive_expansion
					}
				}
				ROOT = {
					NOT = {
						has_opinion_modifier = {
							who = PREV
							modifier = aggressive_expansion
							value = -50
						}
					}
				}
				ROOT = {
					knows_country = prev
				}
				OR = {
					is_part_of_hre = no
					NOT = { hre_reform_passed = landfriede }
					ROOT = { is_part_of_hre = no }
				}
				has_country_modifier = monstrous_nation
			}
			save_event_target_as = agenda_country
		}
		random_known_country = {
			limit = {
				is_free_or_tributary_trigger = yes
				NOT = { is_subject_of = root }
				NOT = { overlord_of = root }
				NOT = { alliance_with = root }
				NOT = { ROOT = { truce_with = prev } }
				ROOT = { NOT = { coalition_target = PREV } }
				ROOT = {
					has_opinion_modifier = {
						who = PREV
						modifier = aggressive_expansion
					}
				}
				ROOT = {
					NOT = {
						has_opinion_modifier = {
							who = PREV
							modifier = aggressive_expansion
							value = -50
						}
					}
				}
				ROOT = {
					knows_country = prev
				}
				OR = {
					is_part_of_hre = no
					NOT = { hre_reform_passed = landfriede }
					ROOT = { is_part_of_hre = no }
				}
				has_country_modifier = witch_king_modifier
			}
			save_event_target_as = agenda_country
		}
	}
	provinces_to_highlight = {
		is_capital_of = event_target:agenda_country
	}
	task_requirements = {
		coalition_target = event_target:agenda_country
	}
	fail_if = {
		has_opinion_modifier = {
			who = event_target:agenda_country
			modifier = aggressive_expansion
			value = -50
		}
	}
	task_completed_effect = {
		add_estate_loyalty = {
			estate = estate_adventurers
			loyalty = 10
		}
	}
    failing_effect = {
        add_estate_loyalty_modifier = {
            estate = estate_adventurers
			desc = EST_VAL_AGENDA_DENIED
			loyalty = -5
			duration = 7300
		}
    }
}

#Bigger Fleet
estate_adventurers_build_a_fleet = {
	can_select = {
		primitives = no
		OR = {
			has_global_flag = new_world_discovered
			has_idea = quest_for_the_new_world
		}
		any_owned_province = {
			has_port = yes
			is_core = root
		}
		navy_size = 1
		NOT = { navy_size_percentage = 0.5 }
		NOT = { navy_size = 250 }
	}
	selection_weight = {
		factor = 2.5
		modifier = {
			factor = 1.5
			any_rival_country = {
				NOT = { truce_with = root }
				navy_size = root
			}
		}
		modifier = {
			factor = 2.0
			NOT = { navy_size_percentage = 0.3 }
			NOT = { navy_size = 150 }
		}
		modifier = {
			factor = 0.5
			navy_size = 100
		}
		modifier = {
			factor = 0.25
			navy_size = 200
		}
		modifier = {
			factor = 0.5
			NOT = { num_of_ports = 3 }
		}
		modifier = {
			factor = 2
			has_idea_group = exploration_ideas
		}
	}
	task_requirements = {
		navy_size_percentage = 0.75
	}
	fail_if = {
		NOT = {
			any_owned_province = {
				has_port = yes
			}
		}
	}
	task_completed_effect = {
		add_estate_loyalty = {
			estate = estate_adventurers
			loyalty = 10
		}
		create_explorer = {
			tradition = 40
		}
	}
    failing_effect = {
        add_estate_loyalty_modifier = {
            estate = estate_adventurers
			desc = EST_VAL_AGENDA_DENIED
			loyalty = -5
			duration = 7300
        }
    }
}

#Bigger Army
estate_adventurers_build_an_army = {
	can_select = {
		NOT = { army_size_percentage = 0.5 }
		if = {
			limit = {
				is_emperor = yes
			}
			NOT = { army_size_percentage = 0.35 }
		}
	}
	selection_weight = {
		factor = 5
		modifier = {
			factor = 2
			any_rival_country = {
				NOT = { truce_with = root }
				army_size = root
			}
		}
		modifier = {
			factor = 2.0
			NOT = { army_size_percentage = 0.3 }
			NOT = { army_size = 150 }
		}
		modifier = { #this could be really annoying in the late game
			factor = 0.5
			army_size = 100
		}
		modifier = {
			factor = 0.25
			army_size = 200
		}
		modifier = {
			factor = 0
			army_size = 500
		}
		modifier = {
			factor = 0.5
			is_emperor = yes
		}
	}
	task_requirements = {
		if = {
			limit = {
				is_emperor = yes
			}
			army_size_percentage = 0.5
		}
		else = {
			army_size_percentage = 0.75
		}
	}
	task_completed_effect = {
		add_estate_loyalty = {
			estate = estate_adventurers
			loyalty = 10
		}
		create_conquistador = {
			tradition = 40
		}
	}
    failing_effect = {
        add_estate_loyalty_modifier = {
            estate = estate_adventurers
			desc = EST_VAL_AGENDA_DENIED
			loyalty = -5
			duration = 7300
        }
    }
}

#Condottieri against monstrous nation (with Mare Nostrum)
estate_adventurers_condottieri_monstrous = {
	can_select = {
		has_dlc = "Mare Nostrum"
		is_at_war = no
		NOT = {
			any_country = {
				root = { is_renting_condottieri_to = prev }
			}
		}
		any_known_country = {
			has_country_modifier = monstrous_nation
			is_at_war = yes
			NOT = {
				is_in_war = {
					duration = 1095
				}
			}
			any_country = {
				war_with = prev
				num_of_cities = 5
				NOT = {
					border_distance = {
						who = root
						distance = 200
					}
				}
				NOT = { is_rival = root }
				NOT = { root = { is_rival = prev } }
				has_opinion = {
					who = root
					value = -50
				}
				is_free_or_tributary_trigger = yes
			}
		}
		manpower_percentage = 0.5
		army_size_percentage = 0.5
	}
	selection_weight = {
		factor = 2
		modifier = {
			factor = 2
			calc_true_if = {
				amount = 5
				all_country = {
					coalition_target = root
				}
			}
		}
		modifier = {
			factor = 0.5
			NOT = {
				any_country = {
					coalition_target = root
					army_size = root
				}
			}
		}
	}
	pre_effect = {
		random_known_country = {
			limit = {
				has_country_modifier = monstrous_nation
				is_at_war = yes
				NOT = {
					is_in_war = {
						duration = 1095
					}
				}
				any_country = {
					war_with = prev
					num_of_cities = 5
					NOT = {
						border_distance = {
							who = root
							distance = 200
						}
					}
					NOT = { is_rival = root }
					NOT = { root = { is_rival = prev } }
					has_opinion = {
						who = root
						value = -50
					}
					is_free_or_tributary_trigger = yes
				}
			}
			save_event_target_as = agenda_country
			random_country = {
				limit = {
					war_with = prev
					num_of_cities = 5
					NOT = {
						border_distance = {
							who = root
							distance = 200
						}
					}
					NOT = { is_rival = root }
					NOT = { root = { is_rival = prev } }
					has_opinion = {
						who = root
						value = -50
					}
					is_free_or_tributary_trigger = yes
				}
				save_event_target_as = agenda_enemy_country
			}
		}
	}
	fail_if = {
		OR = {
			is_subject = yes
			is_at_war = yes
			event_target:agenda_country = {
				OR = {
					is_at_war = no
					NOT = { num_of_cities = 1 }
				}
			}
		}
	}
	provinces_to_highlight = {
		is_capital = yes
		owner = {
			war_with = event_target:agenda_country
		}
	}
	task_requirements = {
		any_country = {
			war_with = event_target:agenda_country
			custom_trigger_tooltip = {
				tooltip = sending_condottieri_to_them
				ROOT = { is_renting_condottieri_to = prev }
			}
		}
	}
	task_completed_effect = {
		add_estate_loyalty = {
			estate = estate_adventurers
			loyalty = 10
		}
		add_mil_power = 50
	}
    failing_effect = {
        add_estate_loyalty_modifier = {
            estate = estate_adventurers
			desc = EST_VAL_AGENDA_DENIED
			loyalty = -5
			duration = 7300
        }
    }
}

#Condottieri against witch king (with Mare Nostrum)
estate_adventurers_condottieri_witch_king = {
	can_select = {
		has_dlc = "Mare Nostrum"
		is_at_war = no
		NOT = {
			any_country = {
				root = { is_renting_condottieri_to = prev }
			}
		}
		any_known_country = {
			has_country_modifier = witch_king_modifier
			is_at_war = yes
			NOT = {
				is_in_war = {
					duration = 1095
				}
			}
			any_country = {
				war_with = prev
				num_of_cities = 5
				NOT = {
					border_distance = {
						who = root
						distance = 200
					}
				}
				NOT = { is_rival = root }
				NOT = { root = { is_rival = prev } }
				has_opinion = {
					who = root
					value = -50
				}
				is_free_or_tributary_trigger = yes
			}
		}
		manpower_percentage = 0.5
		army_size_percentage = 0.5
	}
	selection_weight = {
		factor = 2
		modifier = {
			factor = 2
			calc_true_if = {
				amount = 5
				all_country = {
					coalition_target = root
				}
			}
		}
		modifier = {
			factor = 0.5
			NOT = {
				any_country = {
					coalition_target = root
					army_size = root
				}
			}
		}
		modifier = {
			factor = 2
			any_known_country = {
				has_country_modifier = lich_ruler
			}
		}
		modifier = {
			factor = 2
			any_known_country = {
				has_country_modifier = undead_military
			}
		}
	}
	pre_effect = {
		random_known_country = {
			limit = {
				has_country_modifier = witch_king_modifier
				is_at_war = yes
				NOT = {
					is_in_war = {
						duration = 1095
					}
				}
				any_country = {
					war_with = prev
					num_of_cities = 5
					NOT = {
						border_distance = {
							who = root
							distance = 200
						}
					}
					NOT = { is_rival = root }
					NOT = { root = { is_rival = prev } }
					has_opinion = {
						who = root
						value = -50
					}
					is_free_or_tributary_trigger = yes
				}
			}
			save_event_target_as = agenda_country
			random_country = {
				limit = {
					war_with = prev
					num_of_cities = 5
					NOT = {
						border_distance = {
							who = root
							distance = 200
						}
					}
					NOT = { is_rival = root }
					NOT = { root = { is_rival = prev } }
					has_opinion = {
						who = root
						value = -50
					}
					is_free_or_tributary_trigger = yes
				}
				save_event_target_as = agenda_enemy_country
			}
		}
		random_known_country = {
			limit = {
				has_country_modifier = witch_king_modifier
				has_country_modifier = undead_military
				is_at_war = yes
				NOT = {
					is_in_war = {
						duration = 1095
					}
				}
				any_country = {
					war_with = prev
					num_of_cities = 5
					NOT = {
						border_distance = {
							who = root
							distance = 200
						}
					}
					NOT = { is_rival = root }
					NOT = { root = { is_rival = prev } }
					has_opinion = {
						who = root
						value = -50
					}
					is_free_or_tributary_trigger = yes
				}
			}
			save_event_target_as = agenda_country
			random_country = {
				limit = {
					war_with = prev
					num_of_cities = 5
					NOT = {
						border_distance = {
							who = root
							distance = 200
						}
					}
					NOT = { is_rival = root }
					NOT = { root = { is_rival = prev } }
					has_opinion = {
						who = root
						value = -50
					}
					is_free_or_tributary_trigger = yes
				}
				save_event_target_as = agenda_enemy_country
			}
		}
		random_known_country = {
			limit = {
				has_country_modifier = witch_king_modifier
				has_country_modifier = lich_ruler
				is_at_war = yes
				NOT = {
					is_in_war = {
						duration = 1095
					}
				}
				any_country = {
					war_with = prev
					num_of_cities = 5
					NOT = {
						border_distance = {
							who = root
							distance = 200
						}
					}
					NOT = { is_rival = root }
					NOT = { root = { is_rival = prev } }
					has_opinion = {
						who = root
						value = -50
					}
					is_free_or_tributary_trigger = yes
				}
			}
			save_event_target_as = agenda_country
			random_country = {
				limit = {
					war_with = prev
					num_of_cities = 5
					NOT = {
						border_distance = {
							who = root
							distance = 200
						}
					}
					NOT = { is_rival = root }
					NOT = { root = { is_rival = prev } }
					has_opinion = {
						who = root
						value = -50
					}
					is_free_or_tributary_trigger = yes
				}
				save_event_target_as = agenda_enemy_country
			}
		}
	}
	fail_if = {
		OR = {
			is_subject = yes
			is_at_war = yes
			event_target:agenda_country = {
				OR = {
					is_at_war = no
					NOT = { num_of_cities = 1 }
				}
			}
		}
	}
	provinces_to_highlight = {
		is_capital = yes
		owner = {
			war_with = event_target:agenda_country
		}
	}
	task_requirements = {
		any_country = {
			war_with = event_target:agenda_country
			custom_trigger_tooltip = {
				tooltip = sending_condottieri_to_them
				ROOT = { is_renting_condottieri_to = prev }
			}
		}
	}
	task_completed_effect = {
		add_estate_loyalty = {
			estate = estate_adventurers
			loyalty = 10
		}
		add_mil_power = 50
	}
    failing_effect = {
        add_estate_loyalty_modifier = {
            estate = estate_adventurers
			desc = EST_VAL_AGENDA_DENIED
			loyalty = -5
			duration = 7300
        }
    }
}

#Condottieri against coalitioned nation (with Mare Nostrum)
estate_adventurers_condottieri_coalition = {
	can_select = {
		has_dlc = "Mare Nostrum"
		is_at_war = no
		NOT = {
			any_country = {
				root = { is_renting_condottieri_to = prev }
			}
		}
		any_known_country = {
			is_in_coalition_war = yes
			NOT = {
				is_in_war = {
					duration = 1095
				}
			}
			any_coalition_member = {
				war_with = prev
				num_of_cities = 5
				NOT = {
					border_distance = {
						who = root
						distance = 200
					}
				}
				NOT = { is_rival = root }
				NOT = { root = { is_rival = prev } }
				has_opinion = {
					who = root
					value = -50
				}
				is_free_or_tributary_trigger = yes
			}
		}
		manpower_percentage = 0.5
		army_size_percentage = 0.5
	}
	selection_weight = {
		factor = 2
		modifier = {
			factor = 2
			calc_true_if = {
				amount = 5
				all_country = {
					coalition_target = root
				}
			}
		}
		modifier = {
			factor = 0.5
			NOT = {
				any_country = {
					coalition_target = root
					army_size = root
				}
			}
		}
	}
	pre_effect = {
		random_known_country = {
			limit = {
				is_in_coalition_war = yes
				NOT = {
					is_in_war = {
						duration = 1095
					}
				}
				any_coalition_member = {
					war_with = prev
					num_of_cities = 5
					NOT = {
						border_distance = {
							who = root
							distance = 200
						}
					}
					NOT = { is_rival = root }
					NOT = { root = { is_rival = prev } }
					has_opinion = {
						who = root
						value = -50
					}
					is_free_or_tributary_trigger = yes
				}
			}
			save_event_target_as = agenda_country
			random_coalition_member = {
				limit = {
					war_with = prev
					num_of_cities = 5
					NOT = {
						border_distance = {
							who = root
							distance = 200
						}
					}
					NOT = { is_rival = root }
					NOT = { root = { is_rival = prev } }
					has_opinion = {
						who = root
						value = -50
					}
					is_free_or_tributary_trigger = yes
				}
				save_event_target_as = agenda_enemy_country
			}
		}
	}
	fail_if = {
		OR = {
			is_subject = yes
			is_at_war = yes
			event_target:agenda_country = {
				OR = {
					is_at_war = no
					NOT = { num_of_cities = 1 }
				}
			}
		}
	}
	provinces_to_highlight = {
		is_capital = yes
		owner = {
			war_with = event_target:agenda_country
		}
	}
	task_requirements = {
		any_country = {
			war_with = event_target:agenda_country
			custom_trigger_tooltip = {
				tooltip = sending_condottieri_to_them
				ROOT = { is_renting_condottieri_to = prev }
			}
		}
	}
	task_completed_effect = {
		add_estate_loyalty = {
			estate = estate_adventurers
			loyalty = 10
		}
		add_mil_power = 50
	}
    failing_effect = {
        add_estate_loyalty_modifier = {
            estate = estate_adventurers
			desc = EST_VAL_AGENDA_DENIED
			loyalty = -5
			duration = 7300
        }
    }
}

#Develop x province
estate_adventurers_develop_x = {
	selection_weight = {
		factor = 1
	}
	can_select = {
		capital_scope = {
			is_state_core = root
		}
	}
	pre_effect = {
		random_list = {
			1 = {
				random_owned_province = {
					limit = {
						is_state_core = root
						area_for_scope_province = {
							is_capital_of = root
						}
					}
					save_event_target_as = agenda_province
				}
			}
			2 = {
				trigger = {
					any_owned_province = {
						is_state_core = root
						OR = {
							AND = {
								religion = root
								OR = {
									culture = root
									has_owner_accepted_culture = yes
								}
							}
						}
						region_for_scope_province = {
							is_capital_of = root
						}
					}
				}
				random_owned_province = {
					limit = {
						is_state_core = root
						OR = {
							AND = {
								religion = root
								OR = {
									culture = root
									has_owner_accepted_culture = yes
								}
							}
						}
						region_for_scope_province = {
							is_capital_of = root
						}
					}
					save_event_target_as = agenda_province
				}
			}
			1 = {
				random_owned_province = {
					limit = {
						is_state_core = root
					}
					save_event_target_as = agenda_province
				}
			}
		}
		event_target:agenda_province = {
			if = {
				limit = {
					check_variable = {
						which = province_mil_var
						value = 1
					}
				}
				set_variable = {
					which = province_mil_var
					value = 0
				}
			}
			export_to_variable = {
				which = province_mil_var
				value = trigger_value:base_manpower
			}
			change_variable = {
				which = province_mil_var
				value = 2
			}
		}
	}
	provinces_to_highlight = {
		province_id = event_target:agenda_province
	}
	fail_if = {
		event_target:agenda_province = {
			NOT = { owned_by = root }
		}
	}
    task_requirements = {
		event_target:agenda_province = {
			base_manpower = "province_mil_var"
		}
    }
    task_completed_effect = {
		add_estate_loyalty = {
			estate = estate_adventurers
			loyalty = 10
		}
		 add_yearly_manpower = 0.3
    }
    failing_effect = {
		event_target:agenda_province = {
			if = {
				limit = { owned_by = root }
				add_named_unrest = {
					name = local_adventurers_displeased
					value = 5
				}
			}
		}
        add_estate_loyalty_modifier = {
            estate = estate_adventurers
			desc = EST_VAL_AGENDA_DENIED
			loyalty = -5
			duration = 7300
        }
    }
}
