#276 - Minsk

owner = A30
controller = A30
#add_core = A30
add_core = Z40
culture = east_damerian
religion = regent_court

hre = yes

base_tax = 5
base_production = 4
base_manpower = 4

trade_goods = iron

capital = ""

is_city = yes
fort_15th = yes



1443.1.1 = {
	add_core = A18
}




