#420 -

owner = A57
controller = A57
add_core = A57
culture = arannese
religion = regent_court

hre = yes

base_tax = 1
base_production = 3
base_manpower = 2

trade_goods = naval_supplies

capital = ""

is_city = yes











add_permanent_province_modifier = {
	name = gnollish_minority_oppressed_small
	duration = -1
}