# No previous file for Taraz
owner = F10
controller = F10
add_core = F10
culture = west_sandfang_gnoll
religion = xhazobkult

hre = no

base_tax = 2
base_production = 1
base_manpower = 2

trade_goods = slaves

capital = ""

is_city = yes







