# No previous file for Thanh Hoa
owner = F30
controller = F30
add_core = F30
culture = zanite
religion = bulwari_sun_cult

hre = no

base_tax = 2
base_production = 2
base_manpower = 1

trade_goods = wool

capital = ""

is_city = yes










