country_decisions = {

	ibevar_reformation_decision = {
		major = yes
		potential = {
			has_disaster = ibevar_reformation
			NOT = { has_country_flag = ibevar_reformation_menu_debug_flag }
		}

		allow = {
			NOT = { has_country_modifier = ibevar_reformation_work }
			is_bankrupt = no
		}
		
		effect = {
			country_event = { id = ibevar.3 }
		}
		
		ai_will_do = {
			factor = 100
			
			modifier = {
				factor = 0
				OR = {
					is_at_war = yes
					has_spawned_rebels = elven_forebears_rebels
				}
			}
		}
	}
}
