 namespace = infestation_harpy

#  for testing, use event infestation_harpy.0 to force spawn in one of your provinces
#
#  notes on harpies:
#  harpy infestations have three sizes, 1, 2, 3 with three being the largest
#  harpies can be civilized as racial minority
#  harpies will steal manpower and advisors/rulers sometimes
#
#  possible flags and province modifiers
#  infestation_present - province flag, universal
#  infestation_harpy_1, infestation_harpy_2, infestation_harpy_3 for sizes of harpies
#
#  spawn harpy infestation in this province and start event loop
province_event = {
    id = infestation_harpy.0
    title = infestation_harpy.0.t
    desc = infestation_harpy.0.d
    picture = COMET_SIGHTED_eventPicture
    goto = ROOT
   
    hidden = yes
    is_triggered_only = yes
   
    immediate = {
        hidden_effect = {
            set_province_flag = infestation_present # important; or event loop will exit
        }
    }
   
    option = {
        ai_chance = { factor = 100 }
        add_province_modifier = {
            name = infestation_harpy_1
            duration = -1  
            desc = infestation_harpy_1_tooltip
        }
        province_event = { id = infestation_harpy.100 days = 1 } # spawn response event
    }
    after = {
        # first event in half a year, ish; start event loop
        #province_event = { id = infestation_harpy.1 days = 100 random = 100 }
        set_province_flag = infestation_pulse_flag #we don't want to start pulsing yet
        add_province_triggered_modifier = infestation_harpy_monthly_pulse # we don't want this to start pulsing yet
    }
}

# random event dispatcher, on a loop until infestation_present is removed
province_event = {
    id = infestation_harpy.1
    title = infestation_harpy.1.t
    desc = infestation_harpy.1.d
    picture = COMET_SIGHTED_eventPicture
    goto = ROOT
   
    hidden = yes
    is_triggered_only = yes
   

    trigger = {
        has_province_flag = infestation_present
        OR = { 
            has_province_modifier = infestation_harpy_1
            has_province_modifier = infestation_harpy_2
            has_province_modifier = infestation_harpy_3
        }
    }

    option = {
        # vanish
        trigger = { has_province_modifier = infestation_harpy_1 }
        ai_chance = { factor = 1 }
        province_event = { id = infestation_harpy.101 }
    }
   
    option = {
       #  migrate internally
        trigger = {
            owner = { num_of_cities = 2 } # you have something to migrate to
            any_neighbor_province = { 
                owned_by = ROOT
                NOT = { has_province_flag = infestation_present }
            }
        }
        ai_chance = { factor = 1 }
        province_event = { id = infestation_harpy.110 }
    }
       
    option = {
       #  migrate across border
        trigger = {
            any_neighbor_province = { 
                NOT = { owned_by = ROOT }
                NOT = { has_province_flag = infestation_present }
            }
        }
        ai_chance = { factor = 1 }
        province_event = { id = infestation_harpy.111 }
    }
   
    option = {
       #  banish (migrate to random neighbour)
        ai_chance = { 
            factor = 1
            modifier = {
                factor = 3 # more likely if generous quest rewards/adverturer nation
                OR = {
                    owner = { has_estate_privilege = estate_adventurers_generous_quest_rewards }
                    owner = { has_reform = adventurer }
                }
            }
            modifier = {
                factor = 5 # if being expelled through racial menu
                owner = { has_country_modifier = racial_pop_harpy_expulsion }
            }
        }
        province_event = { id = infestation_harpy.115 }
    }
   
    option = {
       #  spread internally
        trigger = { 
            OR = { 
                has_province_modifier = infestation_harpy_2 
                has_province_modifier = infestation_harpy_3
            }
        }
        ai_chance = { factor = 2 }
        province_event = { id = infestation_harpy.120 }
    }
   
    option = {
        # spread across border
        trigger = { 
            OR = { 
                has_province_modifier = infestation_harpy_2 
                has_province_modifier = infestation_harpy_3
            }
        }
        ai_chance = { factor = 2 } # spreading is good
        province_event = { id = infestation_harpy.121 }
    }
   
    option = {
        # grows
        trigger = { 
            OR = { 
                has_province_modifier = infestation_harpy_1 
                has_province_modifier = infestation_harpy_2
            }
        }
        ai_chance = { factor = 2 } # we like growth opportunities
        province_event = { id = infestation_harpy.130 }
    }

    option = {
        # shrinks
        trigger = { 
            OR = { 
                has_province_modifier = infestation_harpy_2 
                has_province_modifier = infestation_harpy_3
            }
        }
        ai_chance = { factor = 1 }
        province_event = { id = infestation_harpy.131 }
    }

   
    option = {
       #  infestation killed -> shrinks/vanishes
        ai_chance = { 
            factor = 1
            modifier = {
                factor = 3 # more likely if generous quest rewards/adverturer nation
                OR = {
                    owner = { has_estate_privilege = estate_adventurers_generous_quest_rewards }
                    owner = { has_reform = adventurer }
                }
            }
            modifier = {
                factor = 5 # if being purged through racial menu
                owner = { has_country_modifier = racial_pop_harpy_purge }
            }
        }
        province_event = { id = infestation_harpy.150 }
    }
   
    option = {
        # civilizes
        ai_chance = { 
            factor = 1
            modifier = {
                factor = 3 # more likely if generous quest rewards/adverturer nation
                OR = {
                    owner = { has_estate_privilege = estate_adventurers_generous_quest_rewards }
                    owner = { has_reform = adventurer }
                }
            }
            modifier = {
                factor = 5 # harpies infest a harpy nation! Let's incorporate them!
                OR = {
                    owner = { culture_group = harpy } # country is in culture group
                    owner = { has_harpy_accepted_culture = yes }
                    culture_group = harpy # province is in culture group
                }
            }
            modifier = {
                factor = 5 # harpies already in province, and are an integrated minority
                OR = {
                    has_harpy_minority_trigger = yes
                    has_harpy_majority_trigger = yes
                }
                owner = { has_integrated_harpy_pop_trigger = yes }
            }
        }
        province_event = { id = infestation_harpy.160 }
    }
   
    option = {
        # steal manpower from owner; Wild harpy signature event
        trigger = { has_port = no }
        ai_chance = { factor = 1 }
        province_event = { id = infestation_harpy.201 }
    }
   
    option = {
        # steal sailors from owner; Wild harpy signature event
        trigger = { has_port = yes }
        ai_chance = { factor = 1 }
        province_event = { id = infestation_harpy.202 }
    }
   
    option = {
       #  steal advisor from owner; Wild harpy signature event
        trigger = { 
            has_advisor = yes 
            OR = { 
                has_province_modifier = infestation_harpy_2 
                has_province_modifier = infestation_harpy_3
            }
        }
        ai_chance = { factor = 1 }
        province_event = { id = infestation_harpy.203 }
    }
   
    option = {
        # steal leader from owner; Wild harpy signature event
        trigger = {
            has_leaders = {
                value = 1
                type = general
                include_monarch = no
                include_heir = no
            }
            OR = { 
                has_province_modifier = infestation_harpy_2 
                has_province_modifier = infestation_harpy_3
            }
        }
        ai_chance = { factor = 1 }
        province_event = { id = infestation_harpy.204 }
    }
   
   # after = {
   #    # loop this random event dispatcher
   #    # about a year between events
   #    #province_event = { id = infestation_harpy.1 days = 300 random = 100 }
   # }
}


# notification of infestation spawning
province_event = {
    id = infestation_harpy.100
    title = infestation_harpy.100.t
    desc = infestation_harpy.100.d
    picture = COMET_SIGHTED_eventPicture
    goto = ROOT
   
    hidden = no
    is_triggered_only = yes
   
    option = {
       #  what's the worst that can happen?
        name = infestation_harpy.100.a
        ai_chance = { factor = 50 }
    }
    option = {
       #  grant adventurer's generous rewards to look after it
        name = infestation_harpy.100.b
        ai_chance = { 
            factor = 20 
            modifier = {
                factor = 0
                owner = { is_in_deficit = yes }
            }
        }
        trigger = {
            owner = { has_estate = estate_adventurers }
            owner = { NOT = { has_estate_privilege = estate_adventurers_generous_quest_rewards } }
        }
        owner = { set_estate_privilege = estate_adventurers_generous_quest_rewards }
    }
    option = {
       #  the adventurer's are on it
        name = infestation_harpy.100.c
        ai_chance = { factor = 50 }
        trigger = {
            owner = { has_estate = estate_adventurers }
            owner = { has_estate_privilege = estate_adventurers_generous_quest_rewards }
        }
    }
    option = {
        # we are adventurers, deal with it ourselves!
        name = infestation_harpy.100.e
        ai_chance = { factor = 50 }
        trigger = {
            owner = { has_reform = adventurer }
        }
    }
}

# infestation vanishes on its own
province_event = {
    id = infestation_harpy.101
    title = infestation_harpy.101.t
    desc = infestation_harpy.101.d
    picture = COMET_SIGHTED_eventPicture
    goto = ROOT
   
    hidden = no
    is_triggered_only = yes
   
    trigger = {
        has_province_flag = infestation_present
        has_province_modifier = infestation_harpy_1
    }
   
    option = {
       #  oh, thank goodness
        name = infestation_harpy.101.a
        ai_chance = { factor = 100 }
        remove_province_modifier = infestation_harpy_1
        remove_province_triggered_modifier = infestation_harpy_monthly_pulse
        cleanup_infestation = yes
    }
}

# infestation migrates to adjacent province internally event
province_event = {
    id = infestation_harpy.110
    title = infestation_harpy.110.t
    desc = infestation_harpy.110.d
    picture = COMET_SIGHTED_eventPicture
    goto = ROOT
   
    hidden = yes
    is_triggered_only = yes
   
    trigger = {
        owner = { num_of_cities = 2 } # you have something to migrate to
        any_neighbor_province = { 
            owned_by = ROOT
            NOT = { has_province_flag = infestation_present }
            has_influencing_fort = no # forts prevent infestations from spawning if active
        }
    }
   
    immediate = {
        hidden_effect = {
            random_neighbor_province = {
                limit = {
                    owned_by = ROOT
                    NOT = { has_province_flag = infestation_present }
                    has_influencing_fort = no # forts prevent infestations from spawning if active
                }
                save_event_target_as = infestation_migration_target
            }
            event_target:infestation_migration_target = {
                set_province_flag = infestation_present
            }
            remove_province_triggered_modifier = infestation_harpy_monthly_pulse
            cleanup_infestation = yes
        }
    }
    option = {
        name = infestation_harpy.110.a
        ai_chance = { factor = 100 }
        goto = infestation_migration_target
        trigger = {
            has_province_modifier = infestation_harpy_3
        }
        event_target:infestation_migration_target = {
            add_province_modifier = {
                name = infestation_harpy_3
                duration = -1  
                desc = infestation_harpy_3_tooltip
            }
           hidden_effect = {
               add_province_triggered_modifier = infestation_harpy_monthly_pulse
               set_province_flag = infestation_pulse_flag
           }
        }
        remove_province_modifier = infestation_harpy_3
    }    
    option = {
        name = infestation_harpy.110.b
        ai_chance = { factor = 100 }
        goto = infestation_migration_target
        trigger = {
            has_province_modifier = infestation_harpy_2
        }
        event_target:infestation_migration_target = {
            add_province_modifier = {
                name = infestation_harpy_2
                duration = -1  
                desc = infestation_harpy_2_tooltip
            }
            hidden_effect = {
               add_province_triggered_modifier = infestation_harpy_monthly_pulse
               set_province_flag = infestation_pulse_flag
           }
        }
        remove_province_modifier = infestation_harpy_2
    }    
    option = {
        name = infestation_harpy.110.c
        ai_chance = { factor = 100 }
        goto = infestation_migration_target
        trigger = {
            has_province_modifier = infestation_harpy_1
        }
        event_target:infestation_migration_target = {
            add_province_modifier = {
                name = infestation_harpy_1
                duration = -1  
                desc = infestation_harpy_1_tooltip
            }
            hidden_effect = {
               add_province_triggered_modifier = infestation_harpy_monthly_pulse
               set_province_flag = infestation_pulse_flag
           }
        }
        remove_province_modifier = infestation_harpy_1
    }    
   
    #after = {
    #    # first event in half a year, ish
    #    event_target:infestation_migration_target = {
    #        province_event = { id = infestation_harpy.1 days = 100 random = 100 }
    #    }
    #}
}

#  infestation migrates across border to adjacent province event
province_event = {
    id = infestation_harpy.111
    title = infestation_harpy.111.t
    desc = infestation_harpy.111.d
    picture = COMET_SIGHTED_eventPicture
    goto = ROOT
   
    hidden = no
    is_triggered_only = yes
   
    trigger = {
        any_neighbor_province = { 
            NOT = { owned_by = ROOT }
            NOT = { has_province_flag = infestation_present }
            has_influencing_fort = no # forts prevent infestations from spawning if active
        }
    }
   
    immediate = {
        hidden_effect = {
            random_neighbor_province = {
                limit = {
                    NOT = { owned_by = ROOT }
                    NOT = { has_province_flag = infestation_present }
                    has_influencing_fort = no # forts prevent infestations from spawning if active
                }
                save_event_target_as = infestation_migration_target
            }
            event_target:infestation_migration_target = {
                set_province_flag = infestation_present
            }
            remove_province_triggered_modifier = infestation_harpy_monthly_pulse
            cleanup_infestation = yes
        }
    }
   
    option = {
        name = infestation_harpy.111.a
        ai_chance = { factor = 100 }
        goto = infestation_migration_target
        trigger = {
            has_province_modifier = infestation_harpy_3
        }
        event_target:infestation_migration_target = {
            add_province_modifier = {
                name = infestation_harpy_3
                duration = -1  
                desc = infestation_harpy_3_tooltip
            }
            hidden_effect = {
               add_province_triggered_modifier = infestation_harpy_monthly_pulse
               set_province_flag = infestation_pulse_flag
           }
        }
        remove_province_modifier = infestation_harpy_3
    }
    option = {
        name = infestation_harpy.111.b
        ai_chance = { factor = 100 }
        goto = infestation_migration_target
        trigger = {
            has_province_modifier = infestation_harpy_2
        }
        event_target:infestation_migration_target = {
            add_province_modifier = {
                name = infestation_harpy_2
                duration = -1  
                desc = infestation_harpy_2_tooltip
            }
            hidden_effect = {
               add_province_triggered_modifier = infestation_harpy_monthly_pulse
               set_province_flag = infestation_pulse_flag
           }
        }
        remove_province_modifier = infestation_harpy_2
    }
    option = {
        name = infestation_harpy.111.c
        ai_chance = { factor = 100 }
        goto = infestation_migration_target
        trigger = {
            has_province_modifier = infestation_harpy_1
        }
        event_target:infestation_migration_target = {
            add_province_modifier = {
                name = infestation_harpy_1
                duration = -1  
                desc = infestation_harpy_1_tooltip
            }
            hidden_effect = {
               add_province_triggered_modifier = infestation_harpy_monthly_pulse
               set_province_flag = infestation_pulse_flag
           }
        }
        remove_province_modifier = infestation_harpy_1
    }
    after = {
        event_target:infestation_migration_target = {
            province_event = { id = infestation_harpy.112 }
        }
    }
}

# infestation migrated/spread across border into this province event
# basically the same as infestation_harpy.100, but with opinion modifier
# and more flavourful descriptions
province_event = {
    id = infestation_harpy.112
    title = infestation_harpy.112.t
    desc = infestation_harpy.112.d
    picture = COMET_SIGHTED_eventPicture
    goto = ROOT
   
    hidden = no
    is_triggered_only = yes
   
    immediate = {
    }
    option = {
        # How could they do this to us!?
        name = infestation_harpy.112.a
        ai_chance = { factor = 50 }
        owner = {
            add_opinion = {
                who = FROM
                modifier = infestation_crossed_border
            }
        }
    }
    option = {
       #  grant adventurer's generous rewards to look after it
        name = infestation_harpy.112.b
        ai_chance = { 
            factor = 20 
            modifier = {
                factor = 0
                owner = { is_in_deficit = yes }
            }
        }
        trigger = {
            owner = { has_estate = estate_adventurers }
            owner = { NOT = { has_estate_privilege = estate_adventurers_generous_quest_rewards } }
        }
        owner = { set_estate_privilege = estate_adventurers_generous_quest_rewards }
        owner = {
            add_opinion = {
                who = FROM
                modifier = infestation_crossed_border
            }
        }
    }
    option = {
       #  the adventurer's are on it
        name = infestation_harpy.112.c
        ai_chance = { factor = 50 }
        trigger = {
            owner = { has_estate = estate_adventurers }
            owner = { has_estate_privilege = estate_adventurers_generous_quest_rewards }
        }
        owner = {
            add_opinion = {
                who = FROM
                modifier = infestation_crossed_border
            }
        }
    }
    option = {
       #  we are adventurers, deal with it ourselves!
        name = infestation_harpy.112.e
        ai_chance = { factor = 50 }
        trigger = {
            owner = { has_reform = adventurer }
        }
        owner = {
            add_opinion = {
                who = FROM
                modifier = infestation_crossed_border
            }
        }
    }
   
   #after = {
   #    # first event in half a year, ish
   #    province_event = { id = infestation_harpy.1 days = 100 random = 100 }
   #}
}

# banished (migrate to a neighbour at random)
province_event = {
    id = infestation_harpy.115
    title = infestation_harpy.115.t
    desc = infestation_harpy.115.d
    picture = COMET_SIGHTED_eventPicture
    goto = ROOT
   
    hidden = no
    is_triggered_only = yes
       
    trigger = {
        owner = {
            any_neighbor_country = {
                any_owned_province = {
                    NOT = { has_province_flag = infestation_present }
                    has_influencing_fort = no # forts prevent infestations from spawning if active
                }
            }
        }
    }
   
    immediate = {
        hidden_effect = {
            owner = {
                random_neighbor_country = {
                    limit = {
                        any_owned_province = {
                            NOT = { has_province_flag = infestation_present }
                            has_influencing_fort = no # active forts prevent infestations from spawning
                        }
                    }
                    save_event_target_as = infestation_migration_country_target
                }
            }
            event_target:infestation_migration_country_target = {
                random_owned_province = {
                    limit = { 
                        NOT = { has_province_flag = infestation_present } 
                        has_influencing_fort = no # forts prevent infestations from spawning if active
                    }
                    save_event_target_as = infestation_migration_target
                }
            }
            event_target:infestation_migration_target = {
                set_province_flag = infestation_present
            }
            remove_province_triggered_modifier = infestation_harpy_monthly_pulse
            cleanup_infestation = yes
        }
    }
   
    option = {
        name = infestation_harpy.115.a
        ai_chance = { factor = 100 }
        goto = infestation_migration_target
        trigger = {
            has_province_modifier = infestation_harpy_3
        }
        event_target:infestation_migration_target = {
            add_province_modifier = {
                name = infestation_harpy_3
                duration = -1  
                desc = infestation_harpy_3_tooltip
            }
            hidden_effect = {
               add_province_triggered_modifier = infestation_harpy_monthly_pulse
               set_province_flag = infestation_pulse_flag
           }
        }
        remove_province_modifier = infestation_harpy_3
    }
    option = {
        name = infestation_harpy.115.b
        ai_chance = { factor = 100 }
        goto = infestation_migration_target
        trigger = {
            has_province_modifier = infestation_harpy_2
        }
        event_target:infestation_migration_target = {
            add_province_modifier = {
                name = infestation_harpy_2
                duration = -1  
                desc = infestation_harpy_2_tooltip
            }
            hidden_effect = {
               add_province_triggered_modifier = infestation_harpy_monthly_pulse
               set_province_flag = infestation_pulse_flag
           }
        }
        remove_province_modifier = infestation_harpy_2
    }
    option = {
        name = infestation_harpy.115.c
        ai_chance = { factor = 100 }
        goto = infestation_migration_target
        trigger = {
            has_province_modifier = infestation_harpy_1
        }
        event_target:infestation_migration_target = {
            add_province_modifier = {
                name = infestation_harpy_1
                duration = -1  
                desc = infestation_harpy_1_tooltip
            }
            hidden_effect = {
               add_province_triggered_modifier = infestation_harpy_monthly_pulse
               set_province_flag = infestation_pulse_flag
           }
        }
        remove_province_modifier = infestation_harpy_1
    }
    after = {
        event_target:infestation_migration_target = {
            province_event = { id = infestation_harpy.112 }
        }
        if = {
            limit = { owner = { has_estate_privilege = estate_adventurers_generous_quest_rewards } }
            owner = {
                add_estate_influence_modifier = {
                    estate = estate_adventurers
                    desc = handled_infestation
                    duration = 3650
                    influence = 5
                }
            }
        }
    }
}

#  infestation spreads to adjacent province internally event
province_event = {
    id = infestation_harpy.120
    title = infestation_harpy.120.t
    desc = infestation_harpy.120.d
    picture = COMET_SIGHTED_eventPicture
    goto = ROOT
   
    hidden = no
    is_triggered_only = yes
   
    trigger = {
        owner = { num_of_cities = 2 } # you have something to migrate to
        any_neighbor_province = { 
            owned_by = ROOT
            NOT = { has_province_flag = infestation_present }
            has_influencing_fort = no # forts prevent infestations from spawning if active
        }
        OR = {
            has_province_modifier = infestation_harpy_3
            has_province_modifier = infestation_harpy_2
        }
    }
    immediate = {
        hidden_effect = {
            random_neighbor_province = {
                limit = {
                    owned_by = ROOT
                    NOT = { has_province_flag = infestation_present }
                    has_influencing_fort = no # forts prevent infestations from spawning if active
                }
                save_event_target_as = infestation_spread_target
            }
            event_target:infestation_spread_target = {
                set_province_flag = infestation_present
            }
        }
    }
    option = {
        name = infestation_harpy.120.a
        ai_chance = { factor = 100 }
        goto = infestation_spread_target
        event_target:infestation_spread_target = {
            add_province_modifier = {
                name = infestation_harpy_1
                duration = -1  
                desc = infestation_harpy_1_tooltip
            }
        }
    }
    #after = {
    #   #  first event in half a year, ish
    #    event_target:infestation_spread_target = {
    #        province_event = { id = infestation_harpy.1 days = 100 random = 100 }
    #    }
    #}
}

# infestation spreads across border to adjacent province event
province_event = {
    id = infestation_harpy.121
    title = infestation_harpy.121.t
    desc = infestation_harpy.121.d
    picture = COMET_SIGHTED_eventPicture
    goto = ROOT
   
    hidden = no
    is_triggered_only = yes
   
    trigger = {
        any_neighbor_province = { 
            NOT = { owned_by = ROOT }
            NOT = { has_province_flag = infestation_present }
            has_influencing_fort = no # forts prevent infestations from spawning if active
        }
        OR = {
            has_province_modifier = infestation_harpy_3
            has_province_modifier = infestation_harpy_2
        }
    }
    immediate = {
        hidden_effect = {
            random_neighbor_province = {
                limit = {
                    NOT = { owned_by = ROOT }
                    NOT = { has_province_flag = infestation_present }
                    has_influencing_fort = no # forts prevent infestations from spawning if active
                }
                save_event_target_as = infestation_migration_target
            }
            event_target:infestation_migration_target = {
                set_province_flag = infestation_present
            }
        }
    }
    option = {
        name = infestation_harpy.121.a
        ai_chance = { factor = 100 }
        goto = infestation_migration_target
        event_target:infestation_migration_target = {
            add_province_modifier = {
                name = infestation_harpy_1
                duration = -1  
                desc = infestation_harpy_1_tooltip
            }
            hidden_effect = {
               add_province_triggered_modifier = infestation_harpy_monthly_pulse
               set_province_flag = infestation_pulse_flag
           }
        }
    }
    after = {
        event_target:infestation_migration_target = {
            province_event = { id = infestation_harpy.112 }
        }
    }
}

 #infestation grows in strength
province_event = {
    id = infestation_harpy.130
    title = infestation_harpy.130.t
    desc = infestation_harpy.130.d
    picture = COMET_SIGHTED_eventPicture
    goto = ROOT
   
    hidden = no
    is_triggered_only = yes
   
    trigger = {
        has_province_flag = infestation_present
        OR = { 
            has_province_modifier = infestation_harpy_1 
            has_province_modifier = infestation_harpy_2
        }
    }
    option = {
       #  should we be worried?
        name = infestation_harpy.130.a
        ai_chance = { factor = 100 }
        if = {
            limit = { has_province_modifier = infestation_harpy_2 }
            hidden_effect = { remove_province_modifier = infestation_harpy_2 }
            add_province_modifier = {
                name = infestation_harpy_3
                duration = -1  
                desc = infestation_harpy_3_tooltip
            }
        }
        if = {
            limit = { has_province_modifier = infestation_harpy_1 }
            hidden_effect = { remove_province_modifier = infestation_harpy_1 }
            add_province_modifier = {
                name = infestation_harpy_2
                duration = -1  
                desc = infestation_harpy_2_tooltip
            }
        }
    }
}

# infestation shrinks in strength
province_event = {
    id = infestation_harpy.131
    title = infestation_harpy.131.t
    desc = infestation_harpy.131.d
    picture = COMET_SIGHTED_eventPicture
    goto = ROOT
   
    hidden = no
    is_triggered_only = yes
   
    trigger = {
        has_province_flag = infestation_present
        OR = { 
            has_province_modifier = infestation_harpy_2 
            has_province_modifier = infestation_harpy_3
        }
    }
   
    option = {
       #  should we be worried?
        name = infestation_harpy.131.a
        ai_chance = { factor = 100 }
        if = {
            limit = { has_province_modifier = infestation_harpy_2 }
            hidden_effect = { remove_province_modifier = infestation_harpy_2 }
            add_province_modifier = {
                name = infestation_harpy_1
                duration = -1  
                desc = infestation_harpy_1_tooltip
            }
        }
        if = {
            limit = { has_province_modifier = infestation_harpy_3 }
            hidden_effect = { remove_province_modifier = infestation_harpy_3 }
            add_province_modifier = {
                name = infestation_harpy_2
                duration = -1  
                desc = infestation_harpy_2_tooltip
            }
        }
    }
}

# devastation
province_event = {
    id = infestation_harpy.140
    title = infestation_harpy.140.t
    desc = infestation_harpy.140.d
    picture = COMET_SIGHTED_eventPicture
    goto = ROOT
   
    hidden = no
    is_triggered_only = yes
   
    option = {
        name = infestation_harpy.140.a
        ai_chance = { factor = 20 }
        add_devastation = 5
    }
    option = {
       #  crack down hard
        name = infestation_harpy.140.b
        trigger = { 
            OR = { 
                has_province_modifier = infestation_harpy_2 
                has_province_modifier = infestation_harpy_3
            }
        }
        ai_chance = { factor = 80 }
        add_devastation = 10
        province_event = { id = infestation_harpy.131 days = 30 } # shrinks in size
    }
    option = {
        #wipe them out
        name = infestation_harpy.140.c
        trigger = { 
            has_province_modifier = infestation_harpy_1 
        }
        ai_chance = { factor = 80 }
        add_devastation = 15
        province_event = { id = infestation_harpy.101 days = 30 } # vanishes
    }
}




# kill harpies
province_event = {
    id = infestation_harpy.150
    title = infestation_harpy.150.t
    desc = infestation_harpy.150.d
    picture = COMET_SIGHTED_eventPicture
    goto = ROOT
   
    hidden = no
    is_triggered_only = yes
   
    trigger = {
        has_province_flag = infestation_present
    }
   
    option = {
       #  great job!
        name = infestation_harpy.150.a
        ai_chance = { factor = 100 }
        remove_province_modifier = infestation_harpy_1
        remove_province_modifier = infestation_harpy_2
        remove_province_modifier = infestation_harpy_3
        remove_province_triggered_modifier = infestation_harpy_monthly_pulse
        cleanup_infestation = yes
        owner = {
            add_estate_influence_modifier = {
                estate = estate_adventurers
                desc = handled_infestation
                duration = 3650
                influence = 5
            }
        }
    }
}

# infestation, if possible race, becomes minority (civilized)
province_event = {
    id = infestation_harpy.160
    title = infestation_harpy.160.t
    desc = infestation_harpy.160.d
    picture = COMET_SIGHTED_eventPicture
    goto = ROOT
   
    hidden = no
    is_triggered_only = yes
   
    trigger = {
        has_province_flag = infestation_present
    }
   
    option = {
       #  An interesting turn of events
        name = infestation_harpy.160.a
        ai_chance = { 
            factor = 80 
            modifier = {
                factor = 0
                owner = { culture_group = dwarven }#  dwarves hate gobbos 
            }
            modifier = {
                factor = 100
                OR = {
                    owner = { culture_group = harpy } # country is in culture group
                    owner = { has_harpy_accepted_culture = yes }
                    culture_group = harpy # province is in culture group
                    has_harpy_minority_trigger = yes
                    has_harpy_majority_trigger = yes
                    owner = { has_integrated_harpy_pop_trigger = yes }
                }
            }
        }
        if = {
            limit = { has_province_modifier = infestation_harpy_1 }
            add_harpy_minority_size_effect = yes
            remove_province_modifier = infestation_harpy_1
        }
        if = {
            limit = { has_province_modifier = infestation_harpy_2 }
            add_harpy_minority_size_effect = yes
            remove_province_modifier = infestation_harpy_2
        }
        if = {
            limit = { has_province_modifier = infestation_harpy_3 }
            add_harpy_minority_size_effect = yes
            add_harpy_minority_size_effect = yes
            remove_province_modifier = infestation_harpy_3
        }
        small_increase_of_harpy_tolerance_effect = yes
        remove_province_triggered_modifier = infestation_harpy_monthly_pulse
        cleanup_infestation = yes
    }
    option = {
       #  No way!
        name = infestation_harpy.160.b
        ai_chance = { 
            factor = 20 
        }
    }
}

# steal manpower from owner; Wild harpy signature event
province_event = {
    id = infestation_harpy.201
    title = infestation_harpy.201.t
    desc = infestation_harpy.201.d
    picture = COMET_SIGHTED_eventPicture
    goto = ROOT
   
    hidden = no
    is_triggered_only = yes
   
    trigger = {
        has_province_flag = infestation_present
        OR = {
            has_province_modifier = infestation_harpy_1
            has_province_modifier = infestation_harpy_2
            has_province_modifier = infestation_harpy_3
        }
    }
   
    option = {
       #  Those damned harpies!
        name = infestation_harpy.201.a
        ai_chance = { factor = 100 }
        owner = { add_manpower = -1 }
    }
}

# steal sailors from owner; Wild harpy signature event
province_event = {
    id = infestation_harpy.202
    title = infestation_harpy.202.t
    desc = infestation_harpy.202.d
    picture = COMET_SIGHTED_eventPicture
    goto = ROOT
   
    hidden = no
    is_triggered_only = yes
   
    trigger = {
        has_province_flag = infestation_present
        OR = {
            has_province_modifier = infestation_harpy_1
            has_province_modifier = infestation_harpy_2
            has_province_modifier = infestation_harpy_3
        }
        has_port = yes
    }
   
    option = {
        # Those damned harpies!
        name = infestation_harpy.202.a
        ai_chance = { factor = 100 }
        owner = { add_sailors = -100 }
    }
}


# steal advisor from owner; Wild harpy signature event
province_event = {
    id = infestation_harpy.203
    title = infestation_harpy.203.t
    desc = infestation_harpy.203.d
    picture = COMET_SIGHTED_eventPicture
    goto = ROOT
   
    hidden = no
    is_triggered_only = yes
   
    trigger = {
        has_province_flag = infestation_present
        OR = {
            has_province_modifier = infestation_harpy_1
            has_province_modifier = infestation_harpy_2
            has_province_modifier = infestation_harpy_3
        }
       #  TODO: check gender and only kill if they are male
        has_advisor = yes
    }
   
    option = {
        # Those damned harpies!
        name = infestation_harpy.203.a
        ai_chance = { factor = 100 }
        owner = { kill_advisor = random }
    }
}

# steal leader from owner; Wild harpy signature event
province_event = {
    id = infestation_harpy.204
    title = infestation_harpy.204.t
    desc = infestation_harpy.204.d
    picture = COMET_SIGHTED_eventPicture
    goto = ROOT
   
    hidden = no
    is_triggered_only = yes
   
    trigger = {
        has_province_flag = infestation_present
        OR = {
            has_province_modifier = infestation_harpy_1
            has_province_modifier = infestation_harpy_2
            has_province_modifier = infestation_harpy_3
        }
         #TODO: check gender and only kill if they are male - is this possible?
        has_leaders = {
            value = 1
            type = general
            include_monarch = no
            include_heir = no
        }
    }
   
    option = {
        # Those damned harpies!
        name = infestation_harpy.203.a
        ai_chance = { factor = 100 }
        owner = { 
            kill_leader = { type = general } 
        }
    }
}

#
# cleanup event; wipes all trace of this infestation from the province
# this is useful for debugging
province_event = {
    id = infestation_harpy.2000
    title = infestation_harpy.2000.t
    desc = infestation_harpy.2000.d
    picture = COMET_SIGHTED_eventPicture
    goto = ROOT
   
    hidden = yes
    is_triggered_only = yes
   
    option = {
       #  cleanup; hidden
        name = infestation_harpy.2000.a
        ai_chance = { factor = 100 }
        remove_province_modifier = infestation_harpy_1
        remove_province_modifier = infestation_harpy_2
        remove_province_modifier = infestation_harpy_3
        remove_province_triggered_modifier = infestation_harpy_monthly_pulse
        cleanup_infestation = yes
    }
}
